{
  "contractName": "IContractRegistry",
  "abi": [
    {
      "inputs": [
        {
          "internalType": "bytes32",
          "name": "_contractName",
          "type": "bytes32"
        }
      ],
      "name": "addressOf",
      "outputs": [
        {
          "internalType": "address",
          "name": "",
          "type": "address"
        }
      ],
      "stateMutability": "view",
      "type": "function"
    }
  ],
  "metadata": "{\"compiler\":{\"version\":\"0.6.12+commit.27d51765\"},\"language\":\"Solidity\",\"output\":{\"abi\":[{\"inputs\":[{\"internalType\":\"bytes32\",\"name\":\"_contractName\",\"type\":\"bytes32\"}],\"name\":\"addressOf\",\"outputs\":[{\"internalType\":\"address\",\"name\":\"\",\"type\":\"address\"}],\"stateMutability\":\"view\",\"type\":\"function\"}],\"devdoc\":{\"kind\":\"dev\",\"methods\":{},\"version\":1},\"userdoc\":{\"kind\":\"user\",\"methods\":{},\"version\":1}},\"settings\":{\"compilationTarget\":{\"/home/lash/src/ext/cic/grassrootseconomics/bancor-contracts/solidity/contracts/utility/interfaces/IContractRegistry.sol\":\"IContractRegistry\"},\"evmVersion\":\"istanbul\",\"libraries\":{},\"metadata\":{\"bytecodeHash\":\"ipfs\"},\"optimizer\":{\"enabled\":true,\"runs\":200},\"remappings\":[]},\"sources\":{\"/home/lash/src/ext/cic/grassrootseconomics/bancor-contracts/solidity/contracts/utility/interfaces/IContractRegistry.sol\":{\"keccak256\":\"0x3551889a83738b621c29ed66f1ecb6a843cca4217e54c9357198559b9cc92259\",\"license\":\"SEE LICENSE IN LICENSE\",\"urls\":[\"bzz-raw://231a59c8f2665adeda8c7e6930832409c9b991fd27ad84b3a24335e7bf269bbe\",\"dweb:/ipfs/QmeJJbn1EAUbZenruTEdJAnwUn3dxsVNeJvxPe81qKEGqL\"]}},\"version\":1}",
  "bytecode": "0x",
  "deployedBytecode": "0x",
  "immutableReferences": {},
  "sourceMap": "",
  "deployedSourceMap": "",
  "source": "// SPDX-License-Identifier: SEE LICENSE IN LICENSE\npragma solidity 0.6.12;\n\n/*\n    Contract Registry interface\n*/\ninterface IContractRegistry {\n    function addressOf(bytes32 _contractName) external view returns (address);\n}\n",
  "sourcePath": "/home/lash/src/ext/cic/grassrootseconomics/bancor-contracts/solidity/contracts/utility/interfaces/IContractRegistry.sol",
  "ast": {
    "absolutePath": "/home/lash/src/ext/cic/grassrootseconomics/bancor-contracts/solidity/contracts/utility/interfaces/IContractRegistry.sol",
    "exportedSymbols": {
      "IContractRegistry": [
        22831
      ]
    },
    "id": 22832,
    "license": "SEE LICENSE IN LICENSE",
    "nodeType": "SourceUnit",
    "nodes": [
      {
        "id": 22823,
        "literals": [
          "solidity",
          "0.6",
          ".12"
        ],
        "nodeType": "PragmaDirective",
        "src": "51:23:67"
      },
      {
        "abstract": false,
        "baseContracts": [],
        "contractDependencies": [],
        "contractKind": "interface",
        "documentation": null,
        "fullyImplemented": false,
        "id": 22831,
        "linearizedBaseContracts": [
          22831
        ],
        "name": "IContractRegistry",
        "nodeType": "ContractDefinition",
        "nodes": [
          {
            "body": null,
            "documentation": null,
            "functionSelector": "bb34534c",
            "id": 22830,
            "implemented": false,
            "kind": "function",
            "modifiers": [],
            "name": "addressOf",
            "nodeType": "FunctionDefinition",
            "overrides": null,
            "parameters": {
              "id": 22826,
              "nodeType": "ParameterList",
              "parameters": [
                {
                  "constant": false,
                  "id": 22825,
                  "mutability": "mutable",
                  "name": "_contractName",
                  "nodeType": "VariableDeclaration",
                  "overrides": null,
                  "scope": 22830,
                  "src": "167:21:67",
                  "stateVariable": false,
                  "storageLocation": "default",
                  "typeDescriptions": {
                    "typeIdentifier": "t_bytes32",
                    "typeString": "bytes32"
                  },
                  "typeName": {
                    "id": 22824,
                    "name": "bytes32",
                    "nodeType": "ElementaryTypeName",
                    "src": "167:7:67",
                    "typeDescriptions": {
                      "typeIdentifier": "t_bytes32",
                      "typeString": "bytes32"
                    }
                  },
                  "value": null,
                  "visibility": "internal"
                }
              ],
              "src": "166:23:67"
            },
            "returnParameters": {
              "id": 22829,
              "nodeType": "ParameterList",
              "parameters": [
                {
                  "constant": false,
                  "id": 22828,
                  "mutability": "mutable",
                  "name": "",
                  "nodeType": "VariableDeclaration",
                  "overrides": null,
                  "scope": 22830,
                  "src": "213:7:67",
                  "stateVariable": false,
                  "storageLocation": "default",
                  "typeDescriptions": {
                    "typeIdentifier": "t_address",
                    "typeString": "address"
                  },
                  "typeName": {
                    "id": 22827,
                    "name": "address",
                    "nodeType": "ElementaryTypeName",
                    "src": "213:7:67",
                    "stateMutability": "nonpayable",
                    "typeDescriptions": {
                      "typeIdentifier": "t_address",
                      "typeString": "address"
                    }
                  },
                  "value": null,
                  "visibility": "internal"
                }
              ],
              "src": "212:9:67"
            },
            "scope": 22831,
            "src": "148:74:67",
            "stateMutability": "view",
            "virtual": false,
            "visibility": "external"
          }
        ],
        "scope": 22832,
        "src": "114:110:67"
      }
    ],
    "src": "51:174:67"
  },
  "legacyAST": {
    "absolutePath": "/home/lash/src/ext/cic/grassrootseconomics/bancor-contracts/solidity/contracts/utility/interfaces/IContractRegistry.sol",
    "exportedSymbols": {
      "IContractRegistry": [
        22831
      ]
    },
    "id": 22832,
    "license": "SEE LICENSE IN LICENSE",
    "nodeType": "SourceUnit",
    "nodes": [
      {
        "id": 22823,
        "literals": [
          "solidity",
          "0.6",
          ".12"
        ],
        "nodeType": "PragmaDirective",
        "src": "51:23:67"
      },
      {
        "abstract": false,
        "baseContracts": [],
        "contractDependencies": [],
        "contractKind": "interface",
        "documentation": null,
        "fullyImplemented": false,
        "id": 22831,
        "linearizedBaseContracts": [
          22831
        ],
        "name": "IContractRegistry",
        "nodeType": "ContractDefinition",
        "nodes": [
          {
            "body": null,
            "documentation": null,
            "functionSelector": "bb34534c",
            "id": 22830,
            "implemented": false,
            "kind": "function",
            "modifiers": [],
            "name": "addressOf",
            "nodeType": "FunctionDefinition",
            "overrides": null,
            "parameters": {
              "id": 22826,
              "nodeType": "ParameterList",
              "parameters": [
                {
                  "constant": false,
                  "id": 22825,
                  "mutability": "mutable",
                  "name": "_contractName",
                  "nodeType": "VariableDeclaration",
                  "overrides": null,
                  "scope": 22830,
                  "src": "167:21:67",
                  "stateVariable": false,
                  "storageLocation": "default",
                  "typeDescriptions": {
                    "typeIdentifier": "t_bytes32",
                    "typeString": "bytes32"
                  },
                  "typeName": {
                    "id": 22824,
                    "name": "bytes32",
                    "nodeType": "ElementaryTypeName",
                    "src": "167:7:67",
                    "typeDescriptions": {
                      "typeIdentifier": "t_bytes32",
                      "typeString": "bytes32"
                    }
                  },
                  "value": null,
                  "visibility": "internal"
                }
              ],
              "src": "166:23:67"
            },
            "returnParameters": {
              "id": 22829,
              "nodeType": "ParameterList",
              "parameters": [
                {
                  "constant": false,
                  "id": 22828,
                  "mutability": "mutable",
                  "name": "",
                  "nodeType": "VariableDeclaration",
                  "overrides": null,
                  "scope": 22830,
                  "src": "213:7:67",
                  "stateVariable": false,
                  "storageLocation": "default",
                  "typeDescriptions": {
                    "typeIdentifier": "t_address",
                    "typeString": "address"
                  },
                  "typeName": {
                    "id": 22827,
                    "name": "address",
                    "nodeType": "ElementaryTypeName",
                    "src": "213:7:67",
                    "stateMutability": "nonpayable",
                    "typeDescriptions": {
                      "typeIdentifier": "t_address",
                      "typeString": "address"
                    }
                  },
                  "value": null,
                  "visibility": "internal"
                }
              ],
              "src": "212:9:67"
            },
            "scope": 22831,
            "src": "148:74:67",
            "stateMutability": "view",
            "virtual": false,
            "visibility": "external"
          }
        ],
        "scope": 22832,
        "src": "114:110:67"
      }
    ],
    "src": "51:174:67"
  },
  "compiler": {
    "name": "solc",
    "version": "0.6.12+commit.27d51765.Emscripten.clang"
  },
  "networks": {},
  "schemaVersion": "3.2.3",
  "updatedAt": "2020-10-20T08:24:47.850Z",
  "devdoc": {
    "kind": "dev",
    "methods": {},
    "version": 1
  },
  "userdoc": {
    "kind": "user",
    "methods": {},
    "version": 1
  }
}